﻿|039,039,039,039,039,039,039,039,039,039,039,039,039,039,039,
|039,045,045,045,045,045,045,045,045,045,045,045,045,045,039,
|039,045,045,045,045,045,045,045,045,045,045,045,045,045,039,
|039,045,045,045,045,045,045,045,045,045,045,045,045,045,039,
|039,045,045,045,045,045,045,045,045,045,045,045,045,045,039,
|039,045,045,045,045,045,045,045,045,045,045,045,045,045,039,
|039,045,045,045,045,045,045,045,045,045,045,045,045,045,039,
|039,045,045,045,045,045,045,045,045,045,045,045,045,045,039,
|039,045,045,045,045,045,045,045,045,045,045,045,045,045,039,
|039,045,045,045,045,045,045,045,045,045,045,045,045,045,039,
|039,045,045,045,045,045,045,045,045,045,045,045,045,045,039,
|039,045,045,045,045,045,045,045,045,045,045,045,045,045,039,
|039,045,045,045,045,045,045,045,045,045,045,045,045,045,039,
|039,045,045,045,045,045,045,045,045,045,045,045,045,045,039,
|039,039,039,039,039,039,039,039,039,039,039,039,039,039,039,
Darkness:1.00